<svg width="17" height="20" viewBox="0 0 17 20" fill="none" xmlns="http://www.w3.org/2000/svg">
<path d="M4.89008 1.59995C4.89008 1.24097 4.59907 0.949951 4.24008 0.949951C3.8811 0.949951 3.59008 1.24097 3.59008 1.59995V2.98996H3.1001C1.4401 2.98996 0.100098 4.32996 0.100098 5.98996V7.64996C0.100098 8.03996 0.410098 8.34996 0.800098 8.34996H15.4001C15.7901 8.34996 16.1001 8.03996 16.1001 7.64996V5.98996C16.1001 4.32996 14.7501 2.98996 13.1001 2.98996H12.6001V1.59995C12.6001 1.24097 12.3091 0.949951 11.9501 0.949951C11.5911 0.949951 11.3001 1.24097 11.3001 1.59995V2.98996H8.75008V1.59995C8.75008 1.24097 8.45907 0.949951 8.10008 0.949951C7.7411 0.949951 7.45008 1.24097 7.45008 1.59995V2.98996H4.89008V1.59995Z" fill="#307FFF"/>
<path fill-rule="evenodd" clip-rule="evenodd" d="M0.800098 9.64996H15.4001C15.7801 9.64996 16.1001 9.95996 16.1001 10.35V16.12C16.1001 17.78 14.7601 19.12 13.1001 19.12H3.1001C1.4401 19.12 0.100098 17.78 0.100098 16.12V10.35C0.100098 9.95996 0.410098 9.64996 0.800098 9.64996ZM6.52009 15.52C6.91009 15.52 7.22009 15.21 7.22009 14.82V13.5C7.22009 13.11 6.91009 12.8 6.52009 12.8H4.20009C3.81009 12.8 3.50009 13.11 3.50009 13.5V14.82C3.50009 15.21 3.81009 15.52 4.20009 15.52H6.52009Z" fill="#307FFF"/>
</svg>
