<svg width="16" height="16" viewBox="0 0 16 16" fill="none" xmlns="http://www.w3.org/2000/svg">
<path fill-rule="evenodd" clip-rule="evenodd" d="M0.5 8C0.5 3.85786 3.85786 0.5 8 0.5C12.1421 0.5 15.5 3.85786 15.5 8C15.5 12.1421 12.1421 15.5 8 15.5C3.85786 15.5 0.5 12.1421 0.5 8ZM11.3333 4.73398C11.5449 4.94552 11.5449 5.28848 11.3333 5.50001L8.76605 8.00003L11.266 10.5673C11.4776 10.7788 11.4776 11.1218 11.266 11.3333C11.0545 11.5449 10.7115 11.5449 10.5 11.3333L8.00002 8.76606L5.50001 11.3333C5.28848 11.5449 4.94552 11.5449 4.73398 11.3333C4.52245 11.1218 4.52245 10.7788 4.73398 10.5673L7.23398 8.00003L4.73396 5.50002C4.52242 5.28848 4.52242 4.94552 4.73396 4.73398C4.94549 4.52245 5.28846 4.52245 5.49999 4.73398L8.00002 7.234L10.5673 4.73398C10.7788 4.52245 11.1218 4.52245 11.3333 4.73398Z" fill="#0062FF"/>
</svg>
