<svg width="20" height="17" viewBox="0 0 20 17" fill="none" xmlns="http://www.w3.org/2000/svg">
<path fill-rule="evenodd" clip-rule="evenodd" d="M4.58317 0.444069C4.83003 0.161875 5.1867 0 5.56163 0H14.4189C14.7929 0 15.1488 0.161083 15.3956 0.442083L19.2438 4.82321C19.6758 5.31505 19.6747 6.05141 19.2412 6.54196L10.9738 15.8976C10.4563 16.4832 9.54294 16.4832 9.0255 15.8976L0.756517 6.54021C0.323693 6.05041 0.321848 5.3154 0.752206 4.82344L4.58317 0.444069ZM10.0123 1.3H10.0246L12.8534 4.98642H7.18351L10.0123 1.3ZM8.37366 1.3H5.56163L2.33684 4.98642H5.54487L8.37366 1.3ZM5.61977 6.28642H2.2671L7.83552 12.5878L5.61977 6.28642ZM10.0185 14.8769L13.0391 6.28642H6.9978L10.0185 14.8769ZM14.4921 4.98642L11.6633 1.3H14.4189L17.6569 4.98642H14.4921ZM14.4172 6.28642L12.2263 12.5171L17.7322 6.28642H14.4172Z" fill="#7E7E7E"/>
</svg>
