<svg width="14" height="15" viewBox="0 0 14 15" fill="none" xmlns="http://www.w3.org/2000/svg">
<path fill-rule="evenodd" clip-rule="evenodd" d="M10.214 2.34344C9.44921 1.57866 8.20927 1.57866 7.44449 2.34344L2.31797 7.46996C1.13012 8.65781 1.13012 10.5837 2.31797 11.7715L3.43755 12.8911C4.6254 14.079 6.55127 14.079 7.73912 12.8911L12.571 8.05922C12.7825 7.84768 13.1255 7.84768 13.337 8.05922C13.5486 8.27075 13.5486 8.61372 13.337 8.82525L8.50515 13.6571C6.89424 15.2681 4.28243 15.2681 2.67152 13.6571L1.55193 12.5376C-0.058978 10.9266 -0.0589782 8.31484 1.55193 6.70393L6.67846 1.57741C7.8663 0.389562 9.79218 0.389562 10.98 1.57741L11.5693 2.16666C12.7571 3.35451 12.7571 5.28038 11.5693 6.46823L6.73738 11.3001C6.10278 11.9347 5.07389 11.9347 4.43929 11.3001L3.90896 10.7698C3.27436 10.1352 3.27435 9.1063 3.90896 8.4717L8.44623 3.93443C8.65776 3.7229 9.00072 3.7229 9.21226 3.93443C9.42379 4.14596 9.42379 4.48893 9.21226 4.70046L4.67499 9.23773C4.46345 9.44926 4.46346 9.79223 4.67499 10.0038L5.20532 10.5341C5.41685 10.7456 5.75982 10.7456 5.97135 10.5341L10.8032 5.7022C11.568 4.93742 11.568 3.69747 10.8032 2.93269L10.214 2.34344Z" fill="#0062FF"/>
</svg>
